{
    "type": [
        "NR_bb", "NR_bb", "NR_bb", "NR_bb", "NR_bb", "NR_bb", "NR_bb", "NR_bb", "NR_bb", "NR_bb", "NR_bb", "NR_bb", 
        "NR_bf", "NR_bf", "NR_bf", "NR_bf", "NR_bf", "NR_bf", "NR_bf", "NR_bf", "NR_bf", "NR_bf", "NR_bf", "NR_bf", 
        "ZR_bb", "ZR_bb", "ZR_bb", "ZR_bb", "ZR_bb", "ZR_bb", "ZR_bb", "ZR_bb", "ZR_bb", "ZR_bb", "ZR_bb", "ZR_bb", 
        "ZR_bf", "ZR_bf", "ZR_bf", "ZR_bf", "ZR_bf", "ZR_bf", "ZR_bf", "ZR_bf", "ZR_bf", "ZR_bf", "ZR_bf", "ZR_bf"
    ],
    "n": [
        4, 10, 15, 20, 22, 25, 27, 30, 32, 35, 37, 40,
        4, 10, 15, 20, 22, 25, 27, 30, 32, 35, 37, 40, 
        4, 10, 15, 20, 22, 25, 27, 30, 32, 35, 37, 40, 
        4, 10, 15, 20, 22, 25, 27, 30, 32, 35, 37, 40
    ],
    "avg_time": [
        0.00000003573938179, 0.00000008663879644, 0.0000003081941817, 0.000001597550645, 0.000005861878715, 0.00002756731295, 0.0000381940136, 0.0001352544563, 0.0005375458378, 0.001101238044, 0, 0, 
        0.00000008756663704, 0.000003166921666, 0.00009371826283, 0.002877049435, 0.01131303193, 0.09452699266, 0.3620032463, 2.716512554, 11.20288778, 0, 0, 0, 
        0.000000008, 0.000001906, 0.000019846, 0.000344334, 0.001113988, 0.00612978, 0.020709272, 0.135493364, 0.48828098, 2.925435928, 0, 0,
        0.00000008707899666, 0.000002741978188, 0.00008475679407, 0.002594824839, 0.01019011363, 0.08074277458, 0.3233405994, 2.593961235, 10.89518957, 92.86754514, 0, 0
    ],
    "max_time": [
        0.00000007811069489, 0.00000121449727, 0.00001539350913, 0.0001390900621, 0.0008978634812, 0.003448596774, 0.002167389831, 0.01551775, 0.056993, 0.0884505, 0, 0, 
        0.0000002945537567, 0.00001363996828, 0.000438208577, 0.01159258824, 0.053762, 0.443903, 1.125791, 6.165692, 24.205685, 0, 0, 0, 
        0.000001, 0.000009, 0.000084, 0.00145, 0.005583, 0.029643, 0.101809, 0.844811, 2.826905, 20.090856, 0, 0, 
        0.0000001544523239, 0.000006902336363, 0.0002157095517, 0.006897470588, 0.0247394, 0.429126, 0.760129, 6.411599, 26.518955, 194.609527, 0, 0
    ],
    "avg_counter": [
        4.904, 22.9, 112.434, 623.598, 1703.516, 7478.4, 11428.068, 39555.948, 145089.482, 320826.636, 0, 0, 
        22.666, 1255.726, 36473.446, 1139938.826, 4494230.168, 36589095.23, 145236758.7, 1141343912, 4497145824, 0, 0, 0, 
        12.922, 320.114, 5679.354, 115210.208, 358538.308, 2238402.938, 7616644.798, 46946453.41, 170276018.1, 1010418769, 0, 0, 
        22.406, 1121.444, 33464.284, 1054052.16, 4181641.24, 33240966.29, 133099520.1, 1055930939, 4235994848, 37647174605, 0, 0
    ],
    "max_counter": [
        21, 471, 6807, 52169, 114705, 543829, 635141, 4281573, 14904157, 26420421, 0, 0, 
        31, 2047, 65535, 2097151, 8388607, 67108863, 268435455, 2147483647, 8589934591, 0, 0, 0, 
        29, 1107, 20237, 528861, 1758917, 10657693, 37488653, 308138987, 1042089919, 6275078255, 0, 0,
        31, 2047, 65535, 2097151, 8388607, 67108863, 268435455, 2147483647, 8589934591, 68719476735, 0, 0
    ],
    "est": [
        31, 2047, 65535, 2097151, 8388607, 67108863, 268435455, 2147483647, 8589934591, 68719476735, 274877906943, 2199023255551, 
        31, 2047, 65535, 2097151, 8388607, 67108863, 268435455, 2147483647, 8589934591, 68719476735, 274877906943, 2199023255551, 
        31, 2047, 65535, 2097151, 8388607, 67108863, 268435455, 2147483647, 8589934591, 68719476735, 274877906943, 2199023255551, 
        31, 2047, 65535, 2097151, 8388607, 67108863, 268435455, 2147483647, 8589934591, 68719476735, 274877906943, 2199023255551
    ]
}
