has_solution; requiredMinCost; solution; time; counter; repeat_factor
A; 324; -1 4 1129 0 1 0 0; 0.00143137s; 480000; 20000
A; 7; -2 4 2043 1 0 1 0; 0.000985018s; 260000; 20000
A; 0; -3 4 0 0 0 0 0; 0.00168443s; 620000; 20000
A; 63; -4 4 70 1 0 0 0; 0.00109209s; 320000; 20000
N; 4457; -5 4 0 0 0 0 0; 0.00161737s; 620000; 20000
A; 122; -6 4 1641 0 1 0 0; 0.0018984s; 480000; 20000
N; 5477; -7 4 0 0 0 0 0; 0.00164446s; 620000; 20000
N; 7371; -8 4 0 0 0 0 0; 0.00159434s; 620000; 20000
A; 749; -9 4 2532 1 1 0 1; 0.000853948s; 160000; 20000
A; 384; -10 4 744 1 0 0 0; 0.00107116s; 320000; 20000
A; 2061; -11 4 4774 1 1 1 0; 0.000738926s; 120000; 20000
A; 906; -12 4 1538 1 1 0 0; 0.000850424s; 180000; 20000
N; 6784; -13 4 0 0 0 0 0; 0.00160263s; 620000; 20000
A; 950; -14 4 3972 1 0 1 1; 0.000947333s; 240000; 20000
N; 4950; -15 4 0 0 0 0 0; 0.00163703s; 620000; 20000
A; 1305; -16 4 2698 1 1 0 0; 0.000825811s; 180000; 20000
A; 0; -17 4 0 0 0 0 0; 0.00171527s; 620000; 20000
N; 2786; -18 4 0 0 0 0 0; 0.00157883s; 620000; 20000
N; 6844; -19 4 0 0 0 0 0; 0.00168346s; 620000; 20000
A; 4492; -20 4 4919 1 1 1 0; 0.000715345s; 120000; 20000
A; 1127; -21 4 2098 1 0 0 0; 0.00108724s; 320000; 20000
N; 2491; -22 4 0 0 0 0 0; 0.00163924s; 620000; 20000
N; 8524; -23 4 0 0 0 0 0; 0.00167461s; 620000; 20000
N; 4450; -24 4 0 0 0 0 0; 0.00162047s; 620000; 20000
N; 6061; -25 4 0 0 0 0 0; 0.00162033s; 620000; 20000
N; 2883; -26 4 0 0 0 0 0; 0.00160589s; 620000; 20000
A; 178; -27 4 3076 1 1 0 0; 0.00081022s; 180000; 20000
A; 291; -28 4 1649 0 0 0 1; 0.00167623s; 600000; 20000
A; 163; -29 4 2298 1 0 1 0; 0.000976147s; 260000; 20000
N; 8994; -30 4 0 0 0 0 0; 0.00161735s; 620000; 20000
N; 4927; -31 4 0 0 0 0 0; 0.00168141s; 620000; 20000
N; 6052; -32 4 0 0 0 0 0; 0.00166433s; 620000; 20000
N; 3003; -33 4 0 0 0 0 0; 0.00157515s; 620000; 20000
A; 2524; -34 4 2689 1 0 0 1; 0.00105857s; 300000; 20000
N; 3441; -35 4 0 0 0 0 0; 0.00159571s; 620000; 20000
A; 483; -36 4 1209 1 0 1 0; 0.000981079s; 260000; 20000
A; 0; -37 4 0 0 0 0 0; 0.00168513s; 620000; 20000
N; 4163; -38 4 0 0 0 0 0; 0.00163198s; 620000; 20000
A; 871; -39 4 1714 1 1 0 0; 0.000834856s; 180000; 20000
A; 1852; -40 4 2310 1 0 1 0; 0.000976007s; 260000; 20000
N; 2196; -41 4 0 0 0 0 0; 0.00157961s; 620000; 20000
A; 463; -42 4 2625 0 1 0 1; 0.00137571s; 460000; 20000
N; 5328; -43 4 0 0 0 0 0; 0.00157193s; 620000; 20000
N; 4591; -44 4 0 0 0 0 0; 0.00167739s; 620000; 20000
N; 5022; -45 4 0 0 0 0 0; 0.00170182s; 620000; 20000
A; 1061; -46 4 1792 1 1 0 0; 0.000839222s; 180000; 20000
N; 6556; -47 4 0 0 0 0 0; 0.00170538s; 620000; 20000
A; 250; -48 4 3966 0 1 1 0; 0.0013373s; 420000; 20000
A; 0; -49 4 0 0 0 0 0; 0.00172185s; 620000; 20000
N; 5083; -50 4 0 0 0 0 0; 0.00168079s; 620000; 20000
A; 0; -51 4 0 0 0 0 0; 0.00168726s; 620000; 20000
A; 2596; -52 4 3895 1 1 0 1; 0.000802382s; 160000; 20000
A; 1090; -53 4 4206 1 0 1 0; 0.000986548s; 260000; 20000
A; 31; -54 4 523 1 0 0 0; 0.00113442s; 320000; 20000
N; 7817; -55 4 0 0 0 0 0; 0.0017298s; 620000; 20000
N; 4004; -56 4 0 0 0 0 0; 0.00169265s; 620000; 20000
A; 1163; -57 4 2476 1 0 1 1; 0.000997525s; 240000; 20000
N; 2387; -58 4 0 0 0 0 0; 0.00158964s; 620000; 20000
N; 4757; -59 4 0 0 0 0 0; 0.00160141s; 620000; 20000
A; 3126; -60 4 3328 0 1 1 0; 0.00132106s; 420000; 20000
A; 0; -61 4 0 0 0 0 0; 0.00173884s; 620000; 20000
N; 3050; -62 4 0 0 0 0 0; 0.00164623s; 620000; 20000
N; 2414; -63 4 0 0 0 0 0; 0.00159621s; 620000; 20000
N; 5487; -64 4 0 0 0 0 0; 0.00162746s; 620000; 20000
N; 9836; -65 4 0 0 0 0 0; 0.00169211s; 620000; 20000
A; 1450; -66 4 4371 1 1 0 0; 0.000827964s; 180000; 20000
N; 5920; -67 4 0 0 0 0 0; 0.00161264s; 620000; 20000
A; 500; -68 4 2571 1 1 0 1; 0.000855818s; 160000; 20000
A; 0; -69 4 0 0 0 0 0; 0.00168672s; 620000; 20000
N; 8754; -70 4 0 0 0 0 0; 0.00168847s; 620000; 20000
A; 318; -71 4 2301 1 0 0 1; 0.00110484s; 300000; 20000
A; 2020; -72 4 2861 1 0 1 1; 0.00100789s; 240000; 20000
A; 1490; -73 4 2542 1 0 1 0; 0.000990073s; 260000; 20000
A; 0; -74 4 0 0 0 0 0; 0.00169992s; 620000; 20000
N; 4300; -75 4 0 0 0 0 0; 0.00161045s; 620000; 20000
A; 1205; -76 4 1983 1 0 0 0; 0.00107543s; 320000; 20000
N; 8941; -77 4 0 0 0 0 0; 0.00161741s; 620000; 20000
N; 3898; -78 4 0 0 0 0 0; 0.00163665s; 620000; 20000
A; 2411; -79 4 5150 1 0 1 1; 0.000978944s; 240000; 20000
A; 608; -80 4 1548 0 0 1 0; 0.00157203s; 560000; 20000
N; 4375; -81 4 0 0 0 0 0; 0.00167214s; 620000; 20000
A; 3845; -82 4 4323 1 1 0 1; 0.000829548s; 160000; 20000
A; 0; -83 4 0 0 0 0 0; 0.00166975s; 620000; 20000
N; 3197; -84 4 0 0 0 0 0; 0.00160455s; 620000; 20000
N; 7251; -85 4 0 0 0 0 0; 0.00161808s; 620000; 20000
N; 4778; -86 4 0 0 0 0 0; 0.00161116s; 620000; 20000
N; 2868; -87 4 0 0 0 0 0; 0.00158063s; 620000; 20000
N; 307; -88 4 0 0 0 0 0; 0.0016115s; 620000; 20000
N; 1771; -89 4 0 0 0 0 0; 0.00170018s; 620000; 20000
A; 1927; -90 4 4276 1 1 1 0; 0.000759854s; 120000; 20000
N; 3949; -91 4 0 0 0 0 0; 0.00174378s; 620000; 20000
N; 6499; -92 4 0 0 0 0 0; 0.00175979s; 620000; 20000
N; 1241; -93 4 0 0 0 0 0; 0.00158329s; 620000; 20000
N; 3179; -94 4 0 0 0 0 0; 0.00157066s; 620000; 20000
A; 2065; -95 4 3966 1 1 1 0; 0.000752248s; 120000; 20000
A; 1183; -96 4 2751 1 1 0 1; 0.000786994s; 160000; 20000
N; 7417; -97 4 0 0 0 0 0; 0.0016259s; 620000; 20000
A; 1269; -98 4 1325 0 1 0 0; 0.00142549s; 480000; 20000
N; 4836; -99 4 0 0 0 0 0; 0.00162867s; 620000; 20000
A; 258; -100 4 1936 0 0 0 1; 0.00162528s; 600000; 20000
A; 4012; -101 4 5133 1 1 0 1; 0.000810026s; 160000; 20000
A; 483; -102 4 1813 1 1 0 0; 0.000849826s; 180000; 20000
A; 695; -103 4 1289 0 0 0 1; 0.00167468s; 600000; 20000
N; 3494; -104 4 0 0 0 0 0; 0.00174568s; 620000; 20000
N; 2753; -105 4 0 0 0 0 0; 0.00159228s; 620000; 20000
N; 4598; -106 4 0 0 0 0 0; 0.00177886s; 620000; 20000
N; 4679; -107 4 0 0 0 0 0; 0.00171611s; 620000; 20000
A; 1733; -108 4 3497 1 0 1 0; 0.00100005s; 260000; 20000
A; 893; -109 4 5201 1 1 1 0; 0.000829984s; 120000; 20000
N; 3593; -110 4 0 0 0 0 0; 0.0015947s; 620000; 20000
A; 5263; -111 4 5518 0 1 1 1; 0.0013472s; 400000; 20000
N; 2926; -112 4 0 0 0 0 0; 0.00160075s; 620000; 20000
N; 5196; -113 4 0 0 0 0 0; 0.00156151s; 620000; 20000
A; 3237; -114 4 3567 1 0 1 1; 0.00101895s; 240000; 20000
N; 8446; -115 4 0 0 0 0 0; 0.00166074s; 620000; 20000
N; 4823; -116 4 0 0 0 0 0; 0.00161677s; 620000; 20000
N; 3378; -117 4 0 0 0 0 0; 0.0016609s; 620000; 20000
A; 0; -118 4 0 0 0 0 0; 0.00162939s; 620000; 20000
N; 4234; -119 4 0 0 0 0 0; 0.00160397s; 620000; 20000
N; 4902; -120 4 0 0 0 0 0; 0.0015645s; 620000; 20000
A; 391; -121 4 4255 1 1 1 0; 0.000745903s; 120000; 20000
A; 3724; -122 4 4162 1 0 1 0; 0.000998753s; 260000; 20000
N; 8731; -123 4 0 0 0 0 0; 0.00175395s; 620000; 20000
A; 644; -124 4 2120 1 0 0 0; 0.00114468s; 320000; 20000
A; 997; -125 4 2467 1 1 0 0; 0.00084924s; 180000; 20000
A; 0; -126 4 0 0 0 0 0; 0.00176616s; 620000; 20000
N; 6109; -127 4 0 0 0 0 0; 0.00162501s; 620000; 20000
N; 3688; -128 4 0 0 0 0 0; 0.00160851s; 620000; 20000
A; 3024; -129 4 3248 0 1 0 1; 0.00155144s; 460000; 20000
N; 9865; -130 4 0 0 0 0 0; 0.00168034s; 620000; 20000
N; 4303; -131 4 0 0 0 0 0; 0.00162265s; 620000; 20000
N; 4703; -132 4 0 0 0 0 0; 0.00171445s; 620000; 20000
A; 706; -133 4 861 1 0 0 0; 0.0011301s; 320000; 20000
A; 1407; -134 4 3557 1 1 0 0; 0.000893749s; 180000; 20000
N; 5387; -135 4 0 0 0 0 0; 0.00157929s; 620000; 20000
A; 1275; -136 4 1652 1 0 0 1; 0.00128158s; 300000; 20000
N; 4164; -137 4 0 0 0 0 0; 0.00158892s; 620000; 20000
A; 1265; -138 4 2006 0 1 0 0; 0.00150212s; 480000; 20000
A; 368; -139 4 1055 0 0 1 0; 0.00155284s; 560000; 20000
N; 7811; -140 4 0 0 0 0 0; 0.0016353s; 620000; 20000
A; 329; -141 4 1535 1 1 1 0; 0.000733302s; 120000; 20000
A; 4105; -142 4 6234 1 1 1 0; 0.00071772s; 120000; 20000
A; 671; -143 4 2442 1 1 0 1; 0.00081527s; 160000; 20000
A; 0; -144 4 0 0 0 0 0; 0.00171767s; 620000; 20000
A; 0; -145 4 0 0 0 0 0; 0.0016792s; 620000; 20000
A; 2588; -146 4 4255 0 1 1 0; 0.0013431s; 420000; 20000
N; 6161; -147 4 0 0 0 0 0; 0.00163028s; 620000; 20000
N; 5697; -148 4 0 0 0 0 0; 0.00166548s; 620000; 20000
N; 3619; -149 4 0 0 0 0 0; 0.00174366s; 620000; 20000
A; 607; -150 4 1298 1 1 0 0; 0.000821597s; 180000; 20000
N; 7050; -151 4 0 0 0 0 0; 0.00167511s; 620000; 20000
N; 3306; -152 4 0 0 0 0 0; 0.00159891s; 620000; 20000
A; 44; -153 4 475 1 1 0 0; 0.000823184s; 180000; 20000
A; 2328; -154 4 3621 1 1 0 0; 0.000843443s; 180000; 20000
N; 3487; -155 4 0 0 0 0 0; 0.00167789s; 620000; 20000
A; 3076; -156 4 4059 1 1 0 1; 0.000820773s; 160000; 20000
N; 5138; -157 4 0 0 0 0 0; 0.0017106s; 620000; 20000
A; 1771; -158 4 4047 1 1 0 1; 0.000813408s; 160000; 20000
A; 488; -159 4 1851 1 0 0 1; 0.0010772s; 300000; 20000
N; 2826; -160 4 0 0 0 0 0; 0.00163677s; 620000; 20000
A; 875; -161 4 1118 1 0 0 0; 0.00113774s; 320000; 20000
A; 0; -162 4 0 0 0 0 0; 0.00170504s; 620000; 20000
N; 7241; -163 4 0 0 0 0 0; 0.00171173s; 620000; 20000
N; 4060; -164 4 0 0 0 0 0; 0.00163024s; 620000; 20000
A; 1005; -165 4 1609 1 1 0 0; 0.000889392s; 180000; 20000
N; 2438; -166 4 0 0 0 0 0; 0.00163371s; 620000; 20000
N; 6209; -167 4 0 0 0 0 0; 0.00158123s; 620000; 20000
N; 5053; -168 4 0 0 0 0 0; 0.00174634s; 620000; 20000
A; 5879; -169 4 6731 1 1 1 0; 0.000754269s; 120000; 20000
N; 3345; -170 4 0 0 0 0 0; 0.00179179s; 620000; 20000
N; 3111; -171 4 0 0 0 0 0; 0.0016004s; 620000; 20000
N; 7141; -172 4 0 0 0 0 0; 0.00155803s; 620000; 20000
N; 9337; -173 4 0 0 0 0 0; 0.0016067s; 620000; 20000
A; 42; -174 4 103 0 0 0 1; 0.00169007s; 600000; 20000
A; 1612; -175 4 3977 1 1 0 0; 0.000793367s; 180000; 20000
N; 2407; -176 4 0 0 0 0 0; 0.00159648s; 620000; 20000
A; 0; -177 4 0 0 0 0 0; 0.00172993s; 620000; 20000
N; 5666; -178 4 0 0 0 0 0; 0.00168405s; 620000; 20000
N; 5609; -179 4 0 0 0 0 0; 0.00163582s; 620000; 20000
N; 7070; -180 4 0 0 0 0 0; 0.00163208s; 620000; 20000
A; 501; -181 4 2202 1 1 1 0; 0.00079408s; 120000; 20000
N; 6372; -182 4 0 0 0 0 0; 0.00159671s; 620000; 20000
A; 0; -183 4 0 0 0 0 0; 0.00172724s; 620000; 20000
N; 5418; -184 4 0 0 0 0 0; 0.00167446s; 620000; 20000
A; 3483; -185 4 3600 1 1 0 1; 0.00083401s; 160000; 20000
A; 625; -186 4 3084 1 1 0 0; 0.000901207s; 180000; 20000
N; 6592; -187 4 0 0 0 0 0; 0.00161077s; 620000; 20000
N; 982; -188 4 0 0 0 0 0; 0.00158041s; 620000; 20000
A; 707; -189 4 1053 1 1 1 0; 0.000719867s; 120000; 20000
N; 10342; -190 4 0 0 0 0 0; 0.00164513s; 620000; 20000
N; 4833; -191 4 0 0 0 0 0; 0.00169514s; 620000; 20000
N; 8773; -192 4 0 0 0 0 0; 0.00168475s; 620000; 20000
A; 782; -193 4 4084 1 1 0 1; 0.000815833s; 160000; 20000
N; 2045; -194 4 0 0 0 0 0; 0.00161723s; 620000; 20000
N; 4577; -195 4 0 0 0 0 0; 0.00163964s; 620000; 20000
A; 1628; -196 4 1991 1 0 0 1; 0.00105961s; 300000; 20000
N; 6856; -197 4 0 0 0 0 0; 0.00163498s; 620000; 20000
A; 928; -198 4 1065 1 1 0 0; 0.000845538s; 180000; 20000
A; 1609; -199 4 3098 0 0 1 1; 0.00167873s; 540000; 20000
A; 2441; -200 4 2965 1 0 0 1; 0.00102206s; 300000; 20000
A; 0; -201 4 0 0 0 0 0; 0.00173726s; 620000; 20000
N; 3130; -202 4 0 0 0 0 0; 0.00155404s; 620000; 20000
A; 1420; -203 4 2652 1 1 0 0; 0.000919568s; 180000; 20000
A; 0; -204 4 0 0 0 0 0; 0.00170102s; 620000; 20000
A; 1183; -205 4 2209 1 0 0 0; 0.00109123s; 320000; 20000
A; 1700; -206 4 2074 1 0 0 1; 0.00107112s; 300000; 20000
A; 0; -207 4 0 0 0 0 0; 0.00167493s; 620000; 20000
N; 3150; -208 4 0 0 0 0 0; 0.00160524s; 620000; 20000
N; 4109; -209 4 0 0 0 0 0; 0.00160815s; 620000; 20000
N; 1118; -210 4 0 0 0 0 0; 0.0016081s; 620000; 20000
A; 478; -211 4 3726 1 1 0 0; 0.000797534s; 180000; 20000
A; 0; -212 4 0 0 0 0 0; 0.00171188s; 620000; 20000
A; 1963; -213 4 2063 0 0 0 1; 0.00176759s; 600000; 20000
A; 1130; -214 4 3013 1 1 0 1; 0.000827636s; 160000; 20000
A; 0; -215 4 0 0 0 0 0; 0.00169774s; 620000; 20000
A; 0; -216 4 0 0 0 0 0; 0.00166844s; 620000; 20000
N; 2729; -217 4 0 0 0 0 0; 0.00166028s; 620000; 20000
N; 2109; -218 4 0 0 0 0 0; 0.00160201s; 620000; 20000
N; 3324; -219 4 0 0 0 0 0; 0.00160377s; 620000; 20000
A; 2082; -220 4 2193 1 1 0 0; 0.000832835s; 180000; 20000
N; 2871; -221 4 0 0 0 0 0; 0.00163528s; 620000; 20000
A; 1802; -222 4 2260 0 1 0 1; 0.00133357s; 460000; 20000
N; 7156; -223 4 0 0 0 0 0; 0.00158039s; 620000; 20000
A; 311; -224 4 1185 0 1 0 0; 0.00148775s; 480000; 20000
N; 5445; -225 4 0 0 0 0 0; 0.00159936s; 620000; 20000
N; 2094; -226 4 0 0 0 0 0; 0.00167385s; 620000; 20000
N; 428; -227 4 0 0 0 0 0; 0.00167546s; 620000; 20000
A; 591; -228 4 4730 1 1 1 0; 0.000756926s; 120000; 20000
A; 141; -229 4 184 0 1 0 0; 0.00138613s; 480000; 20000
N; 11869; -230 4 0 0 0 0 0; 0.00160844s; 620000; 20000
A; 2324; -231 4 3300 1 1 1 0; 0.000795509s; 120000; 20000
A; 1340; -232 4 5391 1 1 1 0; 0.000751007s; 120000; 20000
N; 6378; -233 4 0 0 0 0 0; 0.00167069s; 620000; 20000
A; 5055; -234 4 5406 1 1 1 0; 0.000743733s; 120000; 20000
A; 1721; -235 4 2666 1 1 1 0; 0.000794205s; 120000; 20000
N; 3204; -236 4 0 0 0 0 0; 0.00153587s; 620000; 20000
A; 903; -237 4 1598 1 0 0 0; 0.00110525s; 320000; 20000
A; 4674; -238 4 5384 1 1 0 1; 0.000840918s; 160000; 20000
N; 5126; -239 4 0 0 0 0 0; 0.00166591s; 620000; 20000
A; 121; -240 4 1410 0 0 1 0; 0.00163428s; 560000; 20000
N; 8290; -241 4 0 0 0 0 0; 0.00166496s; 620000; 20000
N; 6909; -242 4 0 0 0 0 0; 0.00167941s; 620000; 20000
N; 1543; -243 4 0 0 0 0 0; 0.00162315s; 620000; 20000
N; 4592; -244 4 0 0 0 0 0; 0.00164583s; 620000; 20000
A; 1480; -245 4 3195 1 1 0 0; 0.000937268s; 180000; 20000
N; 4178; -246 4 0 0 0 0 0; 0.00155068s; 620000; 20000
N; 7453; -247 4 0 0 0 0 0; 0.00171745s; 620000; 20000
N; 5400; -248 4 0 0 0 0 0; 0.00173222s; 620000; 20000
A; 2219; -249 4 3429 1 0 0 1; 0.0010785s; 300000; 20000
A; 466; -250 4 4183 1 1 0 0; 0.000960401s; 180000; 20000
A; 0; -251 4 0 0 0 0 0; 0.00173254s; 620000; 20000
A; 1176; -252 4 3458 1 1 1 0; 0.00074923s; 120000; 20000
N; 2715; -253 4 0 0 0 0 0; 0.00162385s; 620000; 20000
N; 1780; -254 4 0 0 0 0 0; 0.00160657s; 620000; 20000
A; 0; -255 4 0 0 0 0 0; 0.00170732s; 620000; 20000
N; 2125; -256 4 0 0 0 0 0; 0.00168502s; 620000; 20000
A; 1382; -257 4 2857 1 1 0 1; 0.000816643s; 160000; 20000
A; 2589; -258 4 3779 1 1 1 0; 0.000825923s; 120000; 20000
A; 735; -259 4 3231 1 1 0 0; 0.000918684s; 180000; 20000
N; 4575; -260 4 0 0 0 0 0; 0.00178469s; 620000; 20000
N; 4745; -261 4 0 0 0 0 0; 0.00188747s; 620000; 20000
N; 9493; -262 4 0 0 0 0 0; 0.00173244s; 620000; 20000
N; 3673; -263 4 0 0 0 0 0; 0.00161055s; 620000; 20000
N; 6113; -264 4 0 0 0 0 0; 0.00158025s; 620000; 20000
N; 5075; -265 4 0 0 0 0 0; 0.00155459s; 620000; 20000
N; 1944; -266 4 0 0 0 0 0; 0.00154922s; 620000; 20000
N; 3189; -267 4 0 0 0 0 0; 0.00167331s; 620000; 20000
A; 1619; -268 4 2074 1 1 0 0; 0.000827769s; 180000; 20000
N; 8340; -269 4 0 0 0 0 0; 0.00167964s; 620000; 20000
N; 3176; -270 4 0 0 0 0 0; 0.00166925s; 620000; 20000
A; 4747; -271 4 5039 1 1 1 0; 0.000789861s; 120000; 20000
A; 2969; -272 4 3962 0 1 0 1; 0.00154358s; 460000; 20000
A; 1982; -273 4 2307 0 1 1 0; 0.00137801s; 420000; 20000
A; 1718; -274 4 2363 1 0 1 0; 0.000993594s; 260000; 20000
A; 1801; -275 4 1807 1 0 0 1; 0.00122614s; 300000; 20000
N; 6884; -276 4 0 0 0 0 0; 0.00164586s; 620000; 20000
A; 1597; -277 4 4788 1 1 0 1; 0.000803994s; 160000; 20000
N; 730; -278 4 0 0 0 0 0; 0.00155026s; 620000; 20000
N; 8017; -279 4 0 0 0 0 0; 0.00172529s; 620000; 20000
A; 1419; -280 4 3210 1 1 0 0; 0.000877993s; 180000; 20000
N; 1732; -281 4 0 0 0 0 0; 0.00168214s; 620000; 20000
N; 3276; -282 4 0 0 0 0 0; 0.00163768s; 620000; 20000
A; 2563; -283 4 3268 1 1 0 0; 0.000863052s; 180000; 20000
A; 0; -284 4 0 0 0 0 0; 0.00174395s; 620000; 20000
A; 2721; -285 4 3119 1 1 1 0; 0.000714874s; 120000; 20000
N; 6298; -286 4 0 0 0 0 0; 0.00165601s; 620000; 20000
N; 2264; -287 4 0 0 0 0 0; 0.00158279s; 620000; 20000
N; 7020; -288 4 0 0 0 0 0; 0.00160839s; 620000; 20000
A; 4797; -289 4 5250 1 1 1 0; 0.00070809s; 120000; 20000
N; 5286; -290 4 0 0 0 0 0; 0.00157887s; 620000; 20000
A; 509; -291 4 1379 0 0 0 1; 0.00164175s; 600000; 20000
N; 10630; -292 4 0 0 0 0 0; 0.00164128s; 620000; 20000
N; 7156; -293 4 0 0 0 0 0; 0.00170375s; 620000; 20000
N; 5151; -294 4 0 0 0 0 0; 0.00173995s; 620000; 20000
A; 3110; -295 4 3682 1 0 1 0; 0.00105667s; 260000; 20000
A; 643; -296 4 1745 1 0 0 1; 0.00113381s; 300000; 20000
A; 1841; -297 4 2331 1 0 1 0; 0.00108146s; 260000; 20000
A; 1633; -298 4 2130 1 1 1 0; 0.000744517s; 120000; 20000
A; 1417; -299 4 2370 0 1 0 1; 0.00136492s; 460000; 20000
A; 0; -300 4 0 0 0 0 0; 0.00175533s; 620000; 20000
A; 1550; -301 4 3488 1 1 1 0; 0.000734863s; 120000; 20000
A; 1766; -302 4 2038 0 1 0 0; 0.00149625s; 480000; 20000
N; 3191; -303 4 0 0 0 0 0; 0.00161503s; 620000; 20000
A; 2335; -304 4 5361 1 1 0 1; 0.000886763s; 160000; 20000
N; 6544; -305 4 0 0 0 0 0; 0.00168197s; 620000; 20000
A; 2032; -306 4 2494 1 0 0 0; 0.00111497s; 320000; 20000
A; 1215; -307 4 2488 1 1 0 0; 0.000820497s; 180000; 20000
N; 5825; -308 4 0 0 0 0 0; 0.00152251s; 620000; 20000
A; 689; -309 4 3207 1 1 0 0; 0.00092811s; 180000; 20000
N; 7505; -310 4 0 0 0 0 0; 0.00168727s; 620000; 20000
A; 2157; -311 4 3391 1 1 0 1; 0.000851882s; 160000; 20000
N; 4435; -312 4 0 0 0 0 0; 0.00161514s; 620000; 20000
N; 4158; -313 4 0 0 0 0 0; 0.00150859s; 620000; 20000
N; 5386; -314 4 0 0 0 0 0; 0.00180088s; 620000; 20000
A; 2164; -315 4 6542 1 1 1 0; 0.000740914s; 120000; 20000
A; 175; -316 4 1101 1 0 0 0; 0.00109966s; 320000; 20000
A; 2854; -317 4 4570 1 1 1 0; 0.000762946s; 120000; 20000
A; 1736; -318 4 2247 0 1 0 0; 0.00136042s; 480000; 20000
N; 2398; -319 4 0 0 0 0 0; 0.001585s; 620000; 20000
A; 553; -320 4 2051 1 1 0 0; 0.000836947s; 180000; 20000
A; 1353; -321 4 3012 1 1 0 0; 0.000835021s; 180000; 20000
A; 0; -322 4 0 0 0 0 0; 0.00169333s; 620000; 20000
N; 4725; -323 4 0 0 0 0 0; 0.00156435s; 620000; 20000
A; 3400; -324 4 5059 1 1 1 0; 0.000802856s; 120000; 20000
N; 7058; -325 4 0 0 0 0 0; 0.00165425s; 620000; 20000
A; 2025; -326 4 2317 1 1 1 0; 0.000719446s; 120000; 20000
N; 4007; -327 4 0 0 0 0 0; 0.00164388s; 620000; 20000
N; 3407; -328 4 0 0 0 0 0; 0.00176501s; 620000; 20000
N; 3809; -329 4 0 0 0 0 0; 0.00163538s; 620000; 20000
A; 4809; -330 4 5239 0 1 1 1; 0.00136363s; 400000; 20000
N; 4460; -331 4 0 0 0 0 0; 0.0015831s; 620000; 20000
A; 4399; -332 4 6225 1 1 1 0; 0.000739867s; 120000; 20000
A; 80; -333 4 2250 1 1 0 0; 0.000800916s; 180000; 20000
A; 93; -334 4 701 1 0 0 1; 0.00106985s; 300000; 20000
N; 5886; -335 4 0 0 0 0 0; 0.00168551s; 620000; 20000
A; 598; -336 4 1943 1 1 1 0; 0.000726418s; 120000; 20000
N; 2780; -337 4 0 0 0 0 0; 0.00163753s; 620000; 20000
A; 1963; -338 4 2463 1 0 1 1; 0.000997089s; 240000; 20000
A; 4413; -339 4 6125 1 1 0 1; 0.000804718s; 160000; 20000
N; 1674; -340 4 0 0 0 0 0; 0.00160691s; 620000; 20000
A; 1037; -341 4 2331 1 1 0 0; 0.000846589s; 180000; 20000
A; 2362; -342 4 2637 0 1 0 1; 0.00144237s; 460000; 20000
N; 3229; -343 4 0 0 0 0 0; 0.00167153s; 620000; 20000
A; 967; -344 4 1025 1 0 1 0; 0.00100939s; 260000; 20000
A; 2581; -345 4 4388 1 0 0 1; 0.00110819s; 300000; 20000
N; 4591; -346 4 0 0 0 0 0; 0.00168047s; 620000; 20000
A; 1875; -347 4 3406 1 1 1 0; 0.000742598s; 120000; 20000
A; 0; -348 4 0 0 0 0 0; 0.00157154s; 620000; 20000
A; 2055; -349 4 3575 1 1 1 0; 0.000912208s; 120000; 20000
A; 2307; -350 4 2564 0 1 0 1; 0.00142876s; 460000; 20000
N; 7365; -351 4 0 0 0 0 0; 0.0016756s; 620000; 20000
A; 852; -352 4 5103 1 0 1 1; 0.000938523s; 240000; 20000
A; 545; -353 4 1802 1 1 1 0; 0.000741766s; 120000; 20000
N; 4908; -354 4 0 0 0 0 0; 0.00159433s; 620000; 20000
A; 480; -355 4 1442 1 0 1 0; 0.000958275s; 260000; 20000
A; 4727; -356 4 4826 1 1 0 1; 0.000783915s; 160000; 20000
N; 5387; -357 4 0 0 0 0 0; 0.00167482s; 620000; 20000
N; 3801; -358 4 0 0 0 0 0; 0.0016683s; 620000; 20000
A; 309; -359 4 2207 1 1 0 0; 0.000822921s; 180000; 20000
A; 3126; -360 4 3260 0 1 0 1; 0.00140461s; 460000; 20000
A; 244; -361 4 2384 0 0 1 1; 0.00157128s; 540000; 20000
A; 0; -362 4 0 0 0 0 0; 0.00175042s; 620000; 20000
N; 572; -363 4 0 0 0 0 0; 0.00168137s; 620000; 20000
A; 1737; -364 4 2164 0 0 1 0; 0.00162193s; 560000; 20000
A; 5240; -365 4 5608 0 1 1 1; 0.00140777s; 400000; 20000
A; 3203; -366 4 3533 1 1 0 1; 0.000817889s; 160000; 20000
N; 5763; -367 4 0 0 0 0 0; 0.00162495s; 620000; 20000
N; 6096; -368 4 0 0 0 0 0; 0.00163147s; 620000; 20000
A; 798; -369 4 3383 1 1 1 0; 0.000699271s; 120000; 20000
N; 2968; -370 4 0 0 0 0 0; 0.00160081s; 620000; 20000
N; 4960; -371 4 0 0 0 0 0; 0.00171444s; 620000; 20000
A; 5524; -372 4 6708 1 1 1 0; 0.000695962s; 120000; 20000
N; 4287; -373 4 0 0 0 0 0; 0.00165541s; 620000; 20000
N; 4719; -374 4 0 0 0 0 0; 0.00167557s; 620000; 20000
A; 0; -375 4 0 0 0 0 0; 0.00180093s; 620000; 20000
A; 2076; -376 4 3226 1 1 1 0; 0.000696701s; 120000; 20000
A; 1165; -377 4 2463 0 0 1 0; 0.00157712s; 560000; 20000
A; 1185; -378 4 1622 1 1 0 1; 0.00080087s; 160000; 20000
A; 476; -379 4 804 1 1 0 0; 0.000789392s; 180000; 20000
A; 3101; -380 4 3606 0 1 1 0; 0.00130392s; 420000; 20000
A; 0; -381 4 0 0 0 0 0; 0.00166256s; 620000; 20000
N; 11800; -382 4 0 0 0 0 0; 0.00157343s; 620000; 20000
N; 3599; -383 4 0 0 0 0 0; 0.00154244s; 620000; 20000
N; 5456; -384 4 0 0 0 0 0; 0.0015571s; 620000; 20000
N; 4302; -385 4 0 0 0 0 0; 0.00164653s; 620000; 20000
A; 4002; -386 4 4021 0 1 1 0; 0.0013107s; 420000; 20000
A; 1487; -387 4 2385 0 0 0 1; 0.00165669s; 600000; 20000
A; 907; -388 4 2628 1 1 0 1; 0.000770165s; 160000; 20000
A; 647; -389 4 3475 1 1 0 0; 0.000823031s; 180000; 20000
A; 1842; -390 4 3527 1 1 1 0; 0.000715523s; 120000; 20000
A; 2792; -391 4 3640 1 0 1 0; 0.000972019s; 260000; 20000
A; 929; -392 4 2826 1 1 1 0; 0.000691273s; 120000; 20000
A; 1004; -393 4 3466 1 0 1 1; 0.000947317s; 240000; 20000
N; 5020; -394 4 0 0 0 0 0; 0.00161288s; 620000; 20000
A; 0; -395 4 0 0 0 0 0; 0.00171614s; 620000; 20000
N; 689; -396 4 0 0 0 0 0; 0.00165995s; 620000; 20000
A; 3019; -397 4 4642 1 1 0 0; 0.000832202s; 180000; 20000
A; 3054; -398 4 3071 0 0 1 1; 0.00165684s; 540000; 20000
A; 3198; -399 4 3785 0 1 0 1; 0.00140849s; 460000; 20000
N; 4704; -400 4 0 0 0 0 0; 0.00158831s; 620000; 20000
A; 1617; -401 4 1839 0 1 0 0; 0.00138605s; 480000; 20000
N; 5161; -402 4 0 0 0 0 0; 0.00161792s; 620000; 20000
N; 3806; -403 4 0 0 0 0 0; 0.00159523s; 620000; 20000
A; 2928; -404 4 3811 1 0 0 1; 0.00109085s; 300000; 20000
N; 2844; -405 4 0 0 0 0 0; 0.00156288s; 620000; 20000
A; 315; -406 4 1800 1 0 0 0; 0.00108964s; 320000; 20000
A; 744; -407 4 1360 1 0 0 0; 0.0010751s; 320000; 20000
A; 546; -408 4 2298 0 1 1 0; 0.00129233s; 420000; 20000
A; 2125; -409 4 2400 0 0 1 0; 0.00157791s; 560000; 20000
N; 3563; -410 4 0 0 0 0 0; 0.0015878s; 620000; 20000
A; 3078; -411 4 3403 1 1 1 0; 0.000696897s; 120000; 20000
N; 5602; -412 4 0 0 0 0 0; 0.00168307s; 620000; 20000
A; 805; -413 4 3688 1 1 0 0; 0.000846126s; 180000; 20000
A; 2011; -414 4 3829 1 1 1 0; 0.000732845s; 120000; 20000
A; 0; -415 4 0 0 0 0 0; 0.00169811s; 620000; 20000
A; 3694; -416 4 4611 0 0 1 1; 0.00156917s; 540000; 20000
A; 1192; -417 4 2549 1 1 0 0; 0.000827285s; 180000; 20000
N; 2504; -418 4 0 0 0 0 0; 0.00156726s; 620000; 20000
A; 3952; -419 4 5241 1 1 1 0; 0.000733624s; 120000; 20000
N; 12342; -420 4 0 0 0 0 0; 0.00161373s; 620000; 20000
A; 3050; -421 4 3951 1 0 1 1; 0.000975826s; 240000; 20000
N; 10308; -422 4 0 0 0 0 0; 0.00166085s; 620000; 20000
N; 6916; -423 4 0 0 0 0 0; 0.00164399s; 620000; 20000
A; 2404; -424 4 2503 1 1 1 0; 0.000711623s; 120000; 20000
A; 5892; -425 4 5897 1 1 1 0; 0.000709765s; 120000; 20000
A; 199; -426 4 2381 0 1 0 0; 0.0014225s; 480000; 20000
N; 2366; -427 4 0 0 0 0 0; 0.00163665s; 620000; 20000
A; 0; -428 4 0 0 0 0 0; 0.00170801s; 620000; 20000
N; 5056; -429 4 0 0 0 0 0; 0.00164331s; 620000; 20000
A; 1304; -430 4 2693 1 1 1 0; 0.000775951s; 120000; 20000
A; 1853; -431 4 3457 1 1 1 0; 0.000738107s; 120000; 20000
A; 2396; -432 4 2663 1 0 1 0; 0.000965047s; 260000; 20000
A; 2496; -433 4 3591 1 0 0 1; 0.00110071s; 300000; 20000
N; 1989; -434 4 0 0 0 0 0; 0.00159218s; 620000; 20000
N; 4757; -435 4 0 0 0 0 0; 0.00161083s; 620000; 20000
A; 2654; -436 4 3904 1 0 1 1; 0.000965048s; 240000; 20000
A; 2035; -437 4 3951 1 1 1 0; 0.000710857s; 120000; 20000
N; 8253; -438 4 0 0 0 0 0; 0.00162106s; 620000; 20000
A; 0; -439 4 0 0 0 0 0; 0.00164773s; 620000; 20000
A; 2798; -440 4 4421 1 0 1 1; 0.000946314s; 240000; 20000
A; 1101; -441 4 4086 1 1 0 1; 0.000797178s; 160000; 20000
A; 27; -442 4 2661 1 0 1 0; 0.000955109s; 260000; 20000
N; 8350; -443 4 0 0 0 0 0; 0.00164266s; 620000; 20000
N; 5696; -444 4 0 0 0 0 0; 0.00162472s; 620000; 20000
N; 3566; -445 4 0 0 0 0 0; 0.00160812s; 620000; 20000
A; 1770; -446 4 1899 1 0 1 0; 0.000961233s; 260000; 20000
N; 4443; -447 4 0 0 0 0 0; 0.00157504s; 620000; 20000
A; 1552; -448 4 2907 1 1 1 0; 0.000752799s; 120000; 20000
A; 1093; -449 4 1651 1 0 0 0; 0.00107601s; 320000; 20000
A; 1609; -450 4 2845 0 0 1 1; 0.00153769s; 540000; 20000
N; 4763; -451 4 0 0 0 0 0; 0.00157716s; 620000; 20000
N; 5137; -452 4 0 0 0 0 0; 0.00159821s; 620000; 20000
N; 5888; -453 4 0 0 0 0 0; 0.00163591s; 620000; 20000
A; 599; -454 4 5566 1 1 1 0; 0.000695699s; 120000; 20000
A; 2029; -455 4 3520 1 1 0 1; 0.000855597s; 160000; 20000
N; 6980; -456 4 0 0 0 0 0; 0.00168365s; 620000; 20000
A; 834; -457 4 4532 1 1 1 0; 0.000746653s; 120000; 20000
A; 222; -458 4 1510 1 1 0 0; 0.000801922s; 180000; 20000
A; 154; -459 4 2300 0 0 1 0; 0.0015395s; 560000; 20000
A; 2912; -460 4 5229 1 0 1 1; 0.000939431s; 240000; 20000
N; 9112; -461 4 0 0 0 0 0; 0.00159203s; 620000; 20000
A; 1701; -462 4 2718 1 1 1 0; 0.000782488s; 120000; 20000
A; 1938; -463 4 2476 0 1 0 1; 0.00141384s; 460000; 20000
N; 5031; -464 4 0 0 0 0 0; 0.00171492s; 620000; 20000
A; 62; -465 4 2140 1 0 1 1; 0.000986357s; 240000; 20000
A; 230; -466 4 418 0 0 0 1; 0.00166774s; 600000; 20000
A; 1525; -467 4 3991 1 1 1 0; 0.000724589s; 120000; 20000
N; 5850; -468 4 0 0 0 0 0; 0.00163414s; 620000; 20000
N; 6516; -469 4 0 0 0 0 0; 0.00164846s; 620000; 20000
N; 4042; -470 4 0 0 0 0 0; 0.00161199s; 620000; 20000
N; 1604; -471 4 0 0 0 0 0; 0.00157296s; 620000; 20000
A; 1809; -472 4 2792 1 1 0 1; 0.000794764s; 160000; 20000
A; 4; -473 4 420 0 0 1 0; 0.00156214s; 560000; 20000
N; 6656; -474 4 0 0 0 0 0; 0.00164916s; 620000; 20000
A; 5624; -475 4 6555 1 0 1 1; 0.000983313s; 240000; 20000
N; 426; -476 4 0 0 0 0 0; 0.00156156s; 620000; 20000
A; 0; -477 4 0 0 0 0 0; 0.00181272s; 620000; 20000
A; 1921; -478 4 3694 1 0 0 1; 0.0010527s; 300000; 20000
A; 1666; -479 4 3988 0 1 0 1; 0.00135318s; 460000; 20000
N; 4122; -480 4 0 0 0 0 0; 0.00162166s; 620000; 20000
A; 1070; -481 4 3873 1 1 1 0; 0.000720333s; 120000; 20000
N; 414; -482 4 0 0 0 0 0; 0.00154399s; 620000; 20000
A; 2427; -483 4 3272 1 0 1 1; 0.000974364s; 240000; 20000
N; 222; -484 4 0 0 0 0 0; 0.00158472s; 620000; 20000
A; 27; -485 4 2122 0 0 1 0; 0.00155794s; 560000; 20000
A; 1351; -486 4 2035 0 0 0 1; 0.00165978s; 600000; 20000
A; 1415; -487 4 1652 1 0 0 1; 0.00104186s; 300000; 20000
N; 7639; -488 4 0 0 0 0 0; 0.00163624s; 620000; 20000
A; 0; -489 4 0 0 0 0 0; 0.00169235s; 620000; 20000
A; 1896; -490 4 2933 1 0 1 0; 0.000961907s; 260000; 20000
N; 8347; -491 4 0 0 0 0 0; 0.00160779s; 620000; 20000
N; 9089; -492 4 0 0 0 0 0; 0.00160443s; 620000; 20000
A; 0; -493 4 2422 1 1 1 0; 0.000721647s; 120000; 20000
A; 900; -494 4 2178 1 0 0 1; 0.00109068s; 300000; 20000
N; 5275; -495 4 0 0 0 0 0; 0.00161967s; 620000; 20000
N; 3330; -496 4 0 0 0 0 0; 0.00161097s; 620000; 20000
A; 4326; -497 4 4426 1 1 1 0; 0.000749182s; 120000; 20000
A; 303; -498 4 2145 0 0 0 1; 0.00166028s; 600000; 20000
A; 606; -499 4 2036 0 1 0 0; 0.00151642s; 480000; 20000
N; 3926; -500 4 0 0 0 0 0; 0.00169624s; 620000; 20000
